{
  "layers": [
    {
      "name": "Scrolling Contents Layer",
      "bounds": [1206, 906],
      "contentsOpaque": true,
      "backgroundColor": "#FFFFFF",
      "invalidations": [
        [3, 3, 1200, 900]
      ]
    }
  ]
}

