{
  "layers": [
    {
      "name": "Scrolling Contents Layer",
      "bounds": [1200, 900],
      "contentsOpaque": true,
      "backgroundColor": "#FFFFFF"
    },
    {
      "name": "LayoutNGBlockFlow (positioned) DIV class='composited box'",
      "bounds": [150, 150],
      "contentsOpaque": true,
      "backgroundColor": "#008000",
      "transform": 1
    },
    {
      "name": "Squashing Layer (first squashed layer: LayoutNGBlockFlow (positioned) DIV class='box')",
      "bounds": [150, 150],
      "transform": 1
    }
  ],
  "transforms": [
    {
      "id": 1,
      "transform": [
        [1, 0, 0, 0],
        [0, 1, 0, 0],
        [0, 0, 1, 0],
        [15, 15, 0, 1]
      ]
    }
  ]
}

