{
  "layers": [
    {
      "name": "Scrolling Contents Layer",
      "bounds": [1178, 3770],
      "contentsOpaque": true,
      "backgroundColor": "#FFFFFF",
      "transform": 1
    },
    {
      "name": "LayoutNGBlockFlow (positioned) DIV class='fixed'",
      "bounds": [150, 150],
      "contentsOpaque": true
    },
    {
      "name": "ContentsLayer for Vertical Scrollbar Layer",
      "position": [1178, 0],
      "bounds": [22, 900],
      "contentsOpaque": true
    }
  ],
  "transforms": [
    {
      "id": 1,
      "transform": [
        [1, 0, 0, 0],
        [0, 1, 0, 0],
        [0, 0, 1, 0],
        [0, -300, 0, 1]
      ]
    }
  ]
}

