{
  "layers": [
    {
      "name": "Scrolling Contents Layer",
      "bounds": [1200, 900],
      "contentsOpaque": true,
      "backgroundColor": "#FFFFFF"
    },
    {
      "name": "LayoutView #document",
      "bounds": [600, 600],
      "contentsOpaqueForText": true,
      "backgroundColor": "#FF0000"
    },
    {
      "name": "LayoutNGBlockFlow (positioned) DIV class='positioned layer'",
      "bounds": [150, 150],
      "contentsOpaque": true,
      "backgroundColor": "#008000",
      "transform": 1
    }
  ],
  "transforms": [
    {
      "id": 1,
      "transform": [
        [1, 0, 0, 0],
        [0, 1, 0, 0],
        [0, 0, 1, 0],
        [75, 75, 0, 1]
      ]
    }
  ]
}

