{
  "layers": [
    {
      "name": "Scrolling background of LayoutView #document",
      "bounds": [800, 600],
      "backgroundColor": "#FFFFFF"
    },
    {
      "name": "Scrolling background of LayoutView #document",
      "bounds": [285, 230],
      "contentsOpaque": true,
      "backgroundColor": "#C0C0C0",
      "transform": 1
    },
    {
      "name": "VerticalScrollbar",
      "position": [285, 0],
      "bounds": [15, 150],
      "transform": 1
    },
    {
      "name": "LayoutNGBlockFlow DIV id='test' class='composited box'",
      "bounds": [210, 210],
      "contentsOpaque": true,
      "backgroundColor": "#0000FF",
      "transform": 2
    },
    {
      "name": "LayoutNGBlockFlow (positioned) DIV class='overlay'",
      "position": [5, 5],
      "bounds": [50, 50],
      "backgroundColor": "#00000033"
    }
  ],
  "transforms": [
    {
      "id": 1,
      "transform": [
        [1, 0, 0, 0],
        [0, 1, 0, 0],
        [0, 0, 1, 0],
        [43, 43, 0, 1]
      ]
    },
    {
      "id": 2,
      "parent": 1,
      "transform": [
        [1, 0, 0, 0],
        [0, 1, 0, 0],
        [0, 0, 1, 0],
        [18, 10, 0, 1]
      ]
    }
  ]
}

