 
 
{
  "layers": [
    {
      "name": "Scrolling Contents Layer",
      "bounds": [1200, 900],
      "contentsOpaque": true,
      "backgroundColor": "#FFFFFF"
    },
    {
      "name": "LayoutNGBlockFlow (relative positioned) DIV class='box translateZ'",
      "position": [-7, -7],
      "bounds": [164, 164],
      "backgroundColor": "#0000FF",
      "transform": 1
    },
    {
      "name": "LayoutNGBlockFlow (relative positioned) DIV class='composited box rotate15'",
      "position": [-7, -7],
      "bounds": [164, 164],
      "backgroundColor": "#0000FF",
      "transform": 3
    },
    {
      "name": "Squashing Layer (first squashed layer: LayoutNGBlockFlow (relative positioned) DIV class='box')",
      "position": [-7, 173],
      "bounds": [164, 164],
      "transform": 2
    },
    {
      "name": "LayoutNGBlockFlow (relative positioned) DIV class='composited box rotate45'",
      "position": [-7, -7],
      "bounds": [164, 164],
      "backgroundColor": "#0000FF",
      "transform": 5
    },
    {
      "name": "Squashing Layer (first squashed layer: LayoutNGBlockFlow (relative positioned) DIV class='box')",
      "position": [-7, 173],
      "bounds": [164, 164],
      "transform": 4
    }
  ],
  "transforms": [
    {
      "id": 1,
      "transform": [
        [1, 0, 0, 0],
        [0, 1, 0, 0],
        [0, 0, 1, 0],
        [42, 42, 0, 1]
      ]
    },
    {
      "id": 2,
      "transform": [
        [1, 0, 0, 0],
        [0, 1, 0, 0],
        [0, 0, 1, 0],
        [258, 42, 0, 1]
      ]
    },
    {
      "id": 3,
      "parent": 2,
      "transform": [
        [0.965925826289068, 0.258819045102521, 0, 0],
        [-0.258819045102521, 0.965925826289068, 0, 0],
        [0, 0, 1, 0],
        [0, 0, 0, 1]
      ],
      "origin": [75, 75]
    },
    {
      "id": 4,
      "transform": [
        [1, 0, 0, 0],
        [0, 1, 0, 0],
        [0, 0, 1, 0],
        [474, 42, 0, 1]
      ]
    },
    {
      "id": 5,
      "parent": 4,
      "transform": [
        [0.707106781186548, 0.707106781186548, 0, 0],
        [-0.707106781186548, 0.707106781186548, 0, 0],
        [0, 0, 1, 0],
        [0, 0, 0, 1]
      ],
      "origin": [75, 75]
    }
  ]
}

