{
  "layers": [
    {
      "name": "Scrolling background of LayoutView #document",
      "bounds": [800, 600],
      "contentsOpaque": true,
      "backgroundColor": "#FFFFFF"
    },
    {
      "name": "LayoutNGBlockFlow DIV id='scroller'",
      "bounds": [100, 100],
      "drawsContent": false,
      "transform": 1
    },
    {
      "name": "LayoutNGBlockFlow DIV id='scroller'",
      "bounds": [100, 100],
      "drawsContent": false,
      "transform": 1
    },
    {
      "name": "LayoutNGBlockFlow DIV id='scroller'",
      "bounds": [205, 1022],
      "invalidations": [
        [0, 998, 205, 24]
      ],
      "transform": 2
    }
  ],
  "transforms": [
    {
      "id": 1,
      "transform": [
        [1, 0, 0, 0],
        [0, 1, 0, 0],
        [0, 0, 1, 0],
        [8, 48, 0, 1]
      ]
    },
    {
      "id": 2,
      "parent": 1,
      "transform": [
        [1, 0, 0, 0],
        [0, 1, 0, 0],
        [0, 0, 1, 0],
        [0, -922, 0, 1]
      ]
    }
  ]
}

