{
  "layers": [
    {
      "name": "Scrolling Contents Layer",
      "bounds": [800, 600],
      "contentsOpaque": true,
      "backgroundColor": "#FFFFFF"
    },
    {
      "name": "LayoutNGTextControlSingleLine INPUT id='root'",
      "position": [-2, -2],
      "bounds": [52, 25],
      "backgroundColor": "#FFFFFF",
      "invalidations": [
        [0, 0, 52, 25]
      ],
      "transform": 1
    }
  ],
  "transforms": [
    {
      "id": 1,
      "transform": [
        [1, 0, 0, 0],
        [0, 1, 0, 0],
        [0, 0, 1, 0],
        [8, 8, 0, 1]
      ]
    }
  ]
}

