{
  "layers": [
    {
      "name": "Scrolling background of LayoutView #document",
      "bounds": [785, 2016],
      "contentsOpaque": true,
      "backgroundColor": "#FFFFFF",
      "transform": 1
    },
    {
      "name": "LayoutNGBlockFlow (positioned) DIV id='moveMe' class='fixed clipped'",
      "bounds": [100, 100],
      "backgroundColor": "#FF0000",
      "invalidations": [
        [0, 0, 100, 100]
      ],
      "transform": 2
    },
    {
      "name": "VerticalScrollbar",
      "position": [785, 0],
      "bounds": [15, 600]
    }
  ],
  "transforms": [
    {
      "id": 1,
      "transform": [
        [1, 0, 0, 0],
        [0, 1, 0, 0],
        [0, 0, 1, 0],
        [0, -180, 0, 1]
      ]
    },
    {
      "id": 2,
      "transform": [
        [1, 0, 0, 0],
        [0, 1, 0, 0],
        [0, 0, 1, 0],
        [250, 100, 0, 1]
      ]
    }
  ]
}

