{
  "layers": [
    {
      "name": "Scrolling background of LayoutView #document",
      "bounds": [785, 933],
      "contentsOpaque": true,
      "backgroundColor": "#FFFFFF",
      "invalidations": [
        [571, 515, 80, 40],
        [571, 415, 80, 40],
        [571, 315, 80, 40],
        [571, 165, 80, 40],
        [571, 115, 80, 40],
        [429, 515, 80, 40],
        [429, 415, 80, 40],
        [429, 315, 80, 40],
        [429, 165, 80, 40],
        [429, 115, 80, 40],
        [287, 515, 80, 40],
        [287, 415, 80, 40],
        [287, 315, 80, 40],
        [287, 165, 80, 40],
        [287, 115, 80, 40],
        [145, 515, 80, 40],
        [145, 415, 80, 40],
        [145, 315, 80, 40],
        [145, 165, 80, 40],
        [145, 115, 80, 40],
        [601, 565, 50, 40],
        [601, 465, 50, 40],
        [601, 365, 50, 40],
        [601, 265, 50, 40],
        [601, 215, 50, 40],
        [601, 65, 50, 40],
        [459, 565, 50, 40],
        [459, 465, 50, 40],
        [459, 365, 50, 40],
        [459, 265, 50, 40],
        [459, 215, 50, 40],
        [459, 65, 50, 40],
        [317, 565, 50, 40],
        [317, 465, 50, 40],
        [317, 365, 50, 40],
        [317, 265, 50, 40],
        [317, 215, 50, 40],
        [317, 65, 50, 40],
        [175, 565, 50, 40],
        [175, 465, 50, 40],
        [175, 365, 50, 40],
        [175, 265, 50, 40],
        [175, 215, 50, 40],
        [175, 65, 50, 40]
      ]
    },
    {
      "name": "LayoutVideo VIDEO id='video'",
      "bounds": [150, 60],
      "transform": 1
    },
    {
      "name": "LayoutNGFlexibleBox (relative positioned) DIV class='sizing-small phase-ready state-stopped'",
      "bounds": [150, 60],
      "drawsContent": false,
      "transform": 1
    },
    {
      "name": "VerticalScrollbar",
      "position": [785, 0],
      "bounds": [15, 600]
    }
  ],
  "transforms": [
    {
      "id": 1,
      "transform": [
        [1, 0, 0, 0],
        [0, 1, 0, 0],
        [0, 0, 1, 0],
        [15, 859, 0, 1]
      ]
    }
  ]
}

