{
  "layers": [
    {
      "name": "Scrolling Contents Layer",
      "bounds": [1200, 900],
      "contentsOpaque": true,
      "backgroundColor": "#FFFFFF"
    },
    {
      "name": "LayoutNGBlockFlow DIV",
      "bounds": [900, 300],
      "transform": 1
    },
    {
      "name": "Scrolling Contents Layer",
      "bounds": [878, 600],
      "invalidations": [
        [600, 0, 75, 75],
        [0, 0, 75, 75]
      ],
      "transform": 1
    },
    {
      "name": "ContentsLayer for Horizontal Scrollbar Layer",
      "position": [0, 278],
      "bounds": [878, 22],
      "transform": 1
    },
    {
      "name": "ContentsLayer for Vertical Scrollbar Layer",
      "position": [878, 0],
      "bounds": [22, 278],
      "transform": 1
    },
    {
      "name": "Scroll Corner Layer",
      "position": [878, 278],
      "bounds": [22, 22],
      "transform": 1
    }
  ],
  "transforms": [
    {
      "id": 1,
      "transform": [
        [1, 0, 0, 0],
        [0, 1, 0, 0],
        [0, 0, 1, 0],
        [12, 12, 0, 1]
      ]
    }
  ]
}

