{
  "layers": [
    {
      "name": "Scrolling Contents Layer",
      "bounds": [1200, 900],
      "contentsOpaque": true,
      "backgroundColor": "#FFFFFF"
    },
    {
      "name": "LayoutNGBlockFlow (positioned) DIV class='composited'",
      "position": [15, 15],
      "bounds": [810, 360]
    },
    {
      "name": "LayoutNGBlockFlow (positioned) DIV class='composited'",
      "position": [15, 15],
      "bounds": [75, 75],
      "contentsOpaque": true,
      "transform": 1
    }
  ],
  "transforms": [
    {
      "id": 1,
      "transform": [
        [1, 0, 0, 0],
        [0, 1, 0, 0],
        [0, 0, 1, 0],
        [0, 375, 0, 1]
      ]
    }
  ]
}

