{
  "layers": [
    {
      "name": "Scrolling Contents Layer",
      "bounds": [1026, 996],
      "contentsOpaque": true,
      "backgroundColor": "#FFFFFF",
      "invalidations": [
        [208, 973, 173, 18],
        [427, 973, 150, 18],
        [382, 970, 45, 24],
        [423, 973, 5, 18],
        [380, 973, 5, 18]
      ],
      "transform": 1
    },
    {
      "name": "ContentsLayer for Horizontal Scrollbar Layer",
      "position": [0, 585],
      "bounds": [785, 15],
      "contentsOpaque": true
    },
    {
      "name": "ContentsLayer for Vertical Scrollbar Layer",
      "position": [785, 0],
      "bounds": [15, 585],
      "contentsOpaque": true
    },
    {
      "name": "Scroll Corner Layer",
      "position": [785, 585],
      "bounds": [15, 15]
    }
  ],
  "transforms": [
    {
      "id": 1,
      "transform": [
        [1, 0, 0, 0],
        [0, 1, 0, 0],
        [0, 0, 1, 0],
        [0, -411, 0, 1]
      ]
    }
  ]
}

