{
  "layers": [
    {
      "name": "Scrolling background of LayoutView #document",
      "bounds": [785, 1021],
      "contentsOpaque": true,
      "backgroundColor": "#FFFFFF"
    },
    {
      "name": "LayoutNGBlockFlow (positioned) DIV class='fixed'",
      "bounds": [10, 10],
      "transform": 1
    },
    {
      "name": "LayoutNGBlockFlow (positioned) DIV class='fixed'",
      "bounds": [10, 10]
    },
    {
      "name": "VerticalScrollbar",
      "position": [785, 0],
      "bounds": [15, 600]
    }
  ],
  "transforms": [
    {
      "id": 1,
      "transform": [
        [1, 0, 0, 0],
        [0, 1, 0, 0],
        [0, 0, 1, 0],
        [8, 1013, 0, 1]
      ]
    }
  ]
}

