{
  "layers": [
    {
      "name": "Scrolling background of LayoutView #document",
      "bounds": [800, 600],
      "contentsOpaque": true,
      "backgroundColor": "#FFFFFF",
      "invalidations": [
        [8, 8, 220, 220]
      ]
    },
    {
      "name": "LayoutNGBlockFlow DIV id='scroller'",
      "position": [10, 10],
      "bounds": [185, 185],
      "drawsContent": false,
      "transform": 1
    },
    {
      "name": "LayoutNGBlockFlow DIV id='scroller'",
      "position": [10, 10],
      "bounds": [185, 300],
      "backgroundColor": "#008000",
      "invalidations": [
        [0, 0, 185, 300]
      ],
      "transform": 1
    },
    {
      "name": "HorizontalScrollbar",
      "position": [10, 195],
      "bounds": [200, 15],
      "transform": 1
    },
    {
      "name": "VerticalScrollbar",
      "position": [195, 10],
      "bounds": [15, 185],
      "transform": 1
    }
  ],
  "transforms": [
    {
      "id": 1,
      "transform": [
        [1, 0, 0, 0],
        [0, 1, 0, 0],
        [0, 0, 1, 0],
        [8, 8, 0, 1]
      ]
    }
  ]
}

