{
  "layers": [
    {
      "name": "Scrolling Contents Layer",
      "bounds": [1200, 900],
      "contentsOpaque": true,
      "backgroundColor": "#FFFFFF"
    },
    {
      "name": "LayoutNGBlockFlow (positioned) DIV class='container'",
      "bounds": [150, 150],
      "transform": 1
    },
    {
      "name": "LayoutNGBlockFlow (positioned) DIV class='content tall'",
      "bounds": [15, 300],
      "drawsContent": false,
      "transform": 1
    },
    {
      "name": "ContentsLayer for Vertical Scrollbar Layer",
      "position": [128, 0],
      "bounds": [22, 150],
      "transform": 1
    },
    {
      "name": "LayoutNGBlockFlow (positioned) DIV class='container'",
      "bounds": [150, 150],
      "transform": 2
    },
    {
      "name": "LayoutNGBlockFlow (positioned) DIV class='content wide'",
      "bounds": [300, 15],
      "drawsContent": false,
      "transform": 2
    },
    {
      "name": "ContentsLayer for Horizontal Scrollbar Layer",
      "position": [0, 128],
      "bounds": [150, 22],
      "transform": 2
    },
    {
      "name": "LayoutNGBlockFlow (positioned) DIV class='container'",
      "bounds": [150, 150],
      "transform": 3
    },
    {
      "name": "LayoutNGBlockFlow (positioned) DIV class='content wide tall'",
      "bounds": [300, 300],
      "drawsContent": false,
      "transform": 3
    },
    {
      "name": "ContentsLayer for Horizontal Scrollbar Layer",
      "position": [0, 128],
      "bounds": [128, 22],
      "transform": 3
    },
    {
      "name": "ContentsLayer for Vertical Scrollbar Layer",
      "position": [128, 0],
      "bounds": [22, 128],
      "transform": 3
    },
    {
      "name": "Scroll Corner Layer",
      "position": [128, 128],
      "bounds": [22, 22],
      "transform": 3
    },
    {
      "name": "LayoutNGBlockFlow (positioned) DIV class='container resizeWidget'",
      "bounds": [150, 150],
      "transform": 4
    },
    {
      "name": "LayoutNGBlockFlow (positioned) DIV class='content'",
      "bounds": [15, 15],
      "drawsContent": false,
      "transform": 4
    },
    {
      "name": "Scroll Corner Layer",
      "position": [128, 128],
      "bounds": [22, 22],
      "transform": 4
    }
  ],
  "transforms": [
    {
      "id": 1,
      "transform": [
        [1, 0, 0, 0],
        [0, 1, 0, 0],
        [0, 0, 1, 0],
        [12, 20, 0, 1]
      ]
    },
    {
      "id": 2,
      "transform": [
        [1, 0, 0, 0],
        [0, 1, 0, 0],
        [0, 0, 1, 0],
        [12, 20, 0, 1]
      ]
    },
    {
      "id": 3,
      "transform": [
        [1, 0, 0, 0],
        [0, 1, 0, 0],
        [0, 0, 1, 0],
        [12, 20, 0, 1]
      ]
    },
    {
      "id": 4,
      "transform": [
        [1, 0, 0, 0],
        [0, 1, 0, 0],
        [0, 0, 1, 0],
        [12, 20, 0, 1]
      ]
    }
  ]
}

