{
  "layers": [
    {
      "name": "Scrolling background of LayoutView #document",
      "bounds": [800, 600],
      "contentsOpaque": true,
      "backgroundColor": "#FFFFFF"
    },
    {
      "name": "LayoutNGBlockFlow DIV id='container'",
      "bounds": [784, 378],
      "transform": 1
    }
  ],
  "transforms": [
    {
      "id": 1,
      "transform": [
        [1, 0, 0, 0],
        [0, 1, 0, 0],
        [0, 0, 1, 0],
        [8, 110, 0, 1]
      ]
    }
  ]
}

