{
  "layers": [
    {
      "name": "Scrolling background of LayoutView #document",
      "bounds": [785, 1016],
      "contentsOpaque": true,
      "backgroundColor": "#FFFFFF"
    },
    {
      "name": "LayoutNGBlockFlow DIV id='foo'",
      "bounds": [200, 1000],
      "contentsOpaque": true,
      "backgroundColor": "#D3D3D3",
      "transform": 1
    },
    {
      "name": "LayoutNGBlockFlow (positioned) DIV",
      "position": [8, 0],
      "bounds": [300, 655],
      "invalidations": [
        [8, 508, 29, 19],
        [285, 500, 15, 150]
      ]
    },
    {
      "name": "VerticalScrollbar",
      "position": [785, 0],
      "bounds": [15, 600]
    }
  ],
  "transforms": [
    {
      "id": 1,
      "transform": [
        [1, 0, 0, 0],
        [0, 1, 0, 0],
        [0, 0, 1, 0],
        [8, 8, 0, 1]
      ]
    }
  ]
}

