{
  "layers": [
    {
      "name": "Scrolling Contents Layer",
      "bounds": [1200, 900],
      "contentsOpaque": true,
      "backgroundColor": "#FFFFFF",
      "invalidations": [
        [91, 805, 94, 55],
        [91, 796, 94, 55],
        [91, 688, 94, 34],
        [91, 679, 94, 34],
        [91, 373, 94, 34],
        [91, 364, 94, 34],
        [91, 256, 94, 34],
        [91, 247, 94, 34],
        [91, 139, 94, 34],
        [91, 130, 94, 34],
        [91, 22, 94, 34],
        [91, 13, 94, 34],
        [91, 747, 94, 33],
        [91, 738, 94, 33],
        [91, 630, 94, 33],
        [91, 621, 94, 33],
        [91, 315, 94, 33],
        [91, 306, 94, 33],
        [91, 198, 94, 33],
        [91, 189, 94, 33],
        [91, 81, 94, 33],
        [91, 72, 94, 33],
        [91, 490, 86, 41],
        [91, 481, 86, 41],
        [91, 549, 86, 40],
        [91, 540, 86, 40],
        [91, 432, 86, 40],
        [91, 423, 86, 40],
        [88, 814, 61, 16],
        [88, 805, 61, 16],
        [88, 697, 61, 16],
        [88, 688, 61, 16],
        [88, 382, 61, 16],
        [88, 373, 61, 16],
        [88, 265, 61, 16],
        [88, 256, 61, 16],
        [88, 148, 61, 16],
        [88, 139, 61, 16],
        [88, 756, 61, 15],
        [88, 747, 61, 15],
        [88, 639, 61, 15],
        [88, 630, 61, 15],
        [88, 324, 61, 15],
        [88, 315, 61, 15],
        [88, 384, 25, 25],
        [88, 375, 25, 25],
        [94, 34, 25, 24],
        [88, 817, 25, 24],
        [88, 808, 25, 24],
        [88, 758, 25, 24],
        [88, 749, 25, 24],
        [88, 700, 25, 24],
        [88, 691, 25, 24],
        [88, 641, 25, 24],
        [88, 632, 25, 24],
        [88, 326, 25, 24],
        [88, 317, 25, 24],
        [88, 268, 25, 24],
        [88, 259, 25, 24],
        [88, 209, 25, 24],
        [88, 200, 25, 24],
        [85, 151, 25, 24],
        [85, 142, 25, 24],
        [85, 92, 25, 24],
        [85, 83, 25, 24],
        [86, 563, 24, 24],
        [86, 554, 24, 24],
        [86, 505, 24, 24],
        [86, 496, 24, 24]
      ]
    }
  ]
}

