{
  "layers": [
    {
      "name": "Scrolling Contents Layer",
      "bounds": [1200, 900],
      "contentsOpaque": true,
      "backgroundColor": "#FFFFFF",
      "invalidations": [
        [12, 512, 750, 250],
        [12, 262, 750, 250],
        [12, 12, 750, 250]
      ]
    }
  ]
}

