{
  "layers": [
    {
      "name": "Scrolling Contents Layer",
      "bounds": [1200, 900],
      "contentsOpaque": true,
      "backgroundColor": "#FFFFFF",
      "invalidations": [
        [0, 78, 159, 357],
        [0, 438, 159, 354]
      ]
    }
  ]
}

