{
  "layers": [
    {
      "name": "Scrolling Contents Layer",
      "bounds": [1200, 900],
      "contentsOpaque": true,
      "backgroundColor": "#FFFFFF",
      "invalidations": [
        [12, 529, 90, 58],
        [12, 484, 90, 58],
        [12, 507, 90, 57],
        [12, 462, 90, 57],
        [12, 372, 90, 45],
        [12, 327, 90, 45],
        [12, 282, 90, 45],
        [12, 237, 90, 45],
        [12, 192, 90, 45],
        [12, 147, 90, 45],
        [12, 102, 90, 45],
        [12, 57, 90, 45],
        [12, 12, 90, 45]
      ]
    }
  ]
}

